<?xml version="1.0" encoding="UTF-8" standalone="no"?>
<!-- Created with Inkscape (http://www.inkscape.org/) -->

<svg
   xmlns:dc="http://purl.org/dc/elements/1.1/"
   xmlns:cc="http://creativecommons.org/ns#"
   xmlns:rdf="http://www.w3.org/1999/02/22-rdf-syntax-ns#"
   xmlns:svg="http://www.w3.org/2000/svg"
   xmlns="http://www.w3.org/2000/svg"
   xmlns:sodipodi="http://sodipodi.sourceforge.net/DTD/sodipodi-0.dtd"
   xmlns:inkscape="http://www.inkscape.org/namespaces/inkscape"
   width="9600mm"
   height="4320mm"
   viewBox="0 0 9600 4320"
   version="1.1"
   id="svg8"
   inkscape:version="0.92.3 (2405546, 2018-03-11)"
   sodipodi:docname="intro.svg"
   inkscape:export-filename="C:\Users\smelyric\git\BI-MGA\prez\intro.png"
   inkscape:export-xdpi="25.400002"
   inkscape:export-ydpi="25.400002">
  <defs
     id="defs2" />
  <sodipodi:namedview
     id="base"
     pagecolor="#000000"
     bordercolor="#666666"
     borderopacity="1.0"
     inkscape:pageopacity="1"
     inkscape:pageshadow="2"
     inkscape:zoom="0.04375"
     inkscape:cx="22229.022"
     inkscape:cy="9092.4628"
     inkscape:document-units="px"
     inkscape:current-layer="layer1"
     showgrid="false"
     inkscape:window-width="2560"
     inkscape:window-height="1377"
     inkscape:window-x="-8"
     inkscape:window-y="-8"
     inkscape:window-maximized="1"
     inkscape:pagecheckerboard="false" />
  <metadata
     id="metadata5">
    <rdf:RDF>
      <cc:Work
         rdf:about="">
        <dc:format>image/svg+xml</dc:format>
        <dc:type
           rdf:resource="http://purl.org/dc/dcmitype/StillImage" />
        <dc:title></dc:title>
      </cc:Work>
    </rdf:RDF>
  </metadata>
  <g
     inkscape:label="Layer 1"
     inkscape:groupmode="layer"
     id="layer1"
     transform="translate(0,4023)">
    <text
       xml:space="preserve"
       style="font-style:normal;font-weight:normal;font-size:50.80000305px;line-height:1.25;font-family:sans-serif;letter-spacing:0px;word-spacing:0px;fill:#000000;fill-opacity:1;stroke:none;stroke-width:0.26458335"
       x="290.2858"
       y="-3053.3809"
       id="text4524"><tspan
         sodipodi:role="line"
         id="tspan4522"
         x="290.2858"
         y="-3053.3809"
         style="font-style:normal;font-variant:normal;font-weight:normal;font-stretch:normal;font-size:705.55554199px;font-family:Tahoma;-inkscape-font-specification:Tahoma;fill:#ffffff;stroke-width:0.26458335">BI-MGA</tspan></text>
    <text
       xml:space="preserve"
       style="font-style:normal;font-weight:normal;font-size:20.00946808px;line-height:1.25;font-family:sans-serif;letter-spacing:0px;word-spacing:0px;fill:#000000;fill-opacity:1;stroke:none;stroke-width:0.10421598"
       x="900.69476"
       y="-2709.2017"
       id="text4524-9"><tspan
         sodipodi:role="line"
         id="tspan4522-1"
         x="900.69476"
         y="-2709.2017"
         style="font-style:normal;font-variant:normal;font-weight:normal;font-stretch:normal;font-size:277.90927124px;font-family:Tahoma;-inkscape-font-specification:Tahoma;fill:#ffffff;stroke-width:0.10421598">Richard Smělý</tspan></text>
    <text
       xml:space="preserve"
       style="font-style:normal;font-weight:normal;font-size:70.88999939px;line-height:1.25;font-family:sans-serif;letter-spacing:0px;word-spacing:0px;fill:#000000;fill-opacity:1;stroke:none;stroke-width:0.36921874"
       x="2608.7102"
       y="-341.2157"
       id="text4524-2"><tspan
         sodipodi:role="line"
         id="tspan4522-3"
         x="2608.7102"
         y="-341.2157"
         style="font-style:normal;font-variant:normal;font-weight:normal;font-stretch:normal;font-size:1969.16638184px;font-family:'Agency FB';-inkscape-font-specification:'Agency FB';fill:#ff0000;stroke-width:0.36921874">Fokker Dr.I</tspan></text>
  </g>
</svg>
